## Interface: 80000
## Title: TimerBars
## Author: Elementia
## Notes: A simple addon to show spell cooldown on a HUD style bar
## Version: 0.0.2
## SavedVariables: TimerBarsGlobalSettings

TimerBars.lua